252638 117093
252639 117077
252640 117072
252634 117077
252632 117095
252633 117077
252639 117097
252631 117072
252633 117097
252642 117086
252641 117081
252632 117077
252643 117097
252630 117086
252642 117093
252633 117090
252637 117097
252643 117088
252643 117084
252635 117097
252639 117093
252646 117095
252646 117081
252645 117100
252643 117095
252640 117081
252643 117097
252636 117081
252646 117095
252643 117090
252639 117088
252642 117086
252646 117106
252645 117090
252631 117097
252635 117084
252652 117097
252647 117088
252640 117088
252643 117075
252641 117095
252654 117072
252640 117081
252643 117086
252643 117086
252645 117090
252647 117097
252649 117088
252644 117079
252649 117088